Problem Set 4
…
Show the code

candidate_2014 <- nzge %>%
  filter(election_year == 2014, voting_type == "Candidate") %>%
  group_by(party) %>%
  summarise(total_votes = sum(votes, na.rm = TRUE)) %>%
  mutate(percent = round(total_votes / sum(total_votes) * 100, 3)) %>%
  arrange(desc(percent)) %>%
  ungroup()

# display result
candidate_2014

# A tibble: 25 × 3
   party                    total_votes percent
   <chr>                          <dbl>   <dbl>
 1 National Party               1081787   45.5 
 2 Labour Party                  801287   33.7 
 3 Green Party                   165718    6.98
 4 Conservative Party             81075    3.41
 5 New Zealand First Party        73384    3.09
 6 Maori Party                    42108    1.77
 7 MANA Movement                  32333    1.36
 8 Informal Candidate Votes       27886    1.17
 9 ACT New Zealand                27778    1.17
10 United Future                  14722    0.62
# ℹ 15 more rows
…
